+ - disjunction
• - conjunction
! - inversion

// Logical expressions

1) 	!X + !(X • Y • !Y) = !X + !(X • 0) = !X + !0 = 1 

X | Y | !X | !Y  | X • Y • !Y | !(X • Y • !Y) | !X + !(X • Y • !Y)   | 1
0 | 0 |  1 |  1  |     0      |       1       |       1              | 1
0 | 1 |  1 |  0  |     0      |       1       |       1              | 1
1 | 0 |  0 |  1  |     0      |       1       |       1              | 1
1 | 1 |  0 |  0  |     0      |       1       |       1              | 1


2) 	!(!X • !Y) + !X  = !!X + !!Y + !X = 1

X | Y | !X | !Y  | !(!X • !Y) | !(!X • !Y) + !X |   1 
0 | 0 |  1 |  1  |     0      |       1         |   1 
0 | 1 |  1 |  0  |     1      |       1         |   1 
1 | 0 |  0 |  1  |     1      |       1         |   1   
1 | 1 |  0 |  0  |     1      |       1         |   1   


3) 	X • (X + Y) • !Y = !Y • X • X + !Y • X • Y = !Y • X + 0 • X = !Y • X

X | Y | X + Y | !Y  | X • (X + Y) • !Y |   !Y • X 
0 | 0 |  0    |  1  |        0         |      0  
0 | 1 |  1    |  0  |        0         |      0        
1 | 0 |  1    |  1  |        1         |      1        
1 | 1 |  1    |  0  |        0         |      0  

4) 	X • (X + Y) • !X = !X • X • X + !X • X • Y = 0

X | Y | X + Y | !X  | X • (X + Y) • !X  |  0   
0 | 0 |  0    |  1  |        0          |  0   
0 | 1 |  1    |  1  |        0          |  0          
1 | 0 |  1    |  0  |        0          |  0         
1 | 1 |  1    |  0  |        0          |  0  


5) !(X • Y) + (X • Y) + Z = 1 + Z = 1

X | Y | Z  |   X • Y | !(X • Y) | !(X • Y) + (X • Y) + Z |    1 
0 | 0 | 0  |    0    |  1       |        1               |    1   
0 | 0 | 1  |    0    |  1       |        1               |    1          
0 | 1 | 0  |    0    |  1       |        1               |    1
0 | 1 | 1  |    0    |  1       |        1               |    1          
1 | 0 | 0  |    0    |  1       |        1               |    1  
1 | 0 | 1  |    0    |  1       |        1               |    1  
1 | 1 | 0  |    1    |  0       |        1               |    1  
1 | 1 | 1  |    1    |  0       |        1               |    1  

6) 	!A + A + B + (A • B) = 1 + B • (A + 1) = B + 1 = 1

A | B | !A  | A + B | A • B  | !A + A + B + (A • B)  |  1   
0 | 0 |  1  |   0   |    0   |          1            |  1   
0 | 1 |  1  |   1   |    0   |          1            |  1          
1 | 0 |  0  |   1   |    0   |          1            |  1         
1 | 1 |  0  |   1   |    1   |          1            |  1  

7) 	(A + B • !C) + (A + B • C) + C + A  = A + C + B • (!C + C) = A + C + B

A | B | C  | !C | B • !C  | A + B • !C  |  B • C  |  A + B • C  |  (A + B • !C) + (A + B • C) + C + A  |  A + C + B 
0 | 0 | 0  |  1 |    0    |     0       |    0    |      0      |              0                       |      0
0 | 0 | 1  |  0 |    0    |     0       |    0    |      0      |              1                       |      1
0 | 1 | 0  |  1 |    1    |     1       |    0    |      0      |              1                       |      1
0 | 1 | 1  |  0 |    0    |     0       |    1    |      1      |              1                       |      1   
1 | 0 | 0  |  1 |    0    |     1       |    0    |      1      |              1                       |      1
1 | 0 | 1  |  0 |    0    |     1       |    0    |      1      |              1                       |      1
1 | 1 | 0  |  1 |    1    |     1       |    0    |      1      |              1                       |      1
1 | 1 | 1  |  0 |    0    |     1       |    1    |      1      |              1                       |      1

8) ((x • z) + (y • !x)) + (y • (z + y • !z)) = x • z + y • (!x + z + y • !z) = x • z + y • (!x + z + y) = x • z + !x • y + y • z + y = x • z + y • z + y = x • z + y

x | y | z | x • z | y • !x | !x  | (x • z) + (y • !x) | !z | y • !z | z + y • !z | y • (z + y • !z)|((x • z) + (y • !x)) + (y • (z + y • !z))| x • z + y
0 | 0 | 0 |  0    |   0    |  1  |         0          |  1 |    0   |      0     |        0        |                 0                       |      0   
0 | 0 | 1 |  0    |   0    |  1  |         0          |  0 |    0   |      1     |        0        |                 0                       |      0 
0 | 1 | 0 |  0    |   1    |  1  |         1          |  1 |    1   |      1     |        1        |                 1                       |      1  
0 | 1 | 1 |  0    |   0    |  0  |         0          |  0 |    0   |      1     |        1        |                 1                       |      1   
1 | 0 | 0 |  0    |   0    |  0  |         0          |  1 |    0   |      0     |        0        |                 0                       |      0    
1 | 0 | 1 |  1    |   0    |  0  |         1          |  0 |    0   |      1     |        0        |                 1                       |      1    
1 | 1 | 0 |  0    |   0    |  0  |         0          |  1 |    1   |      1     |        1        |                 1                       |      1     
1 | 1 | 1 |  1    |   0    |  0  |         1          |  0 |    0   |      1     |        1        |                 1                       |      1    

9) (x • (y + !z)) + ((y • z) • !x) = x • y + x • !z + y • z • !x = x • !z + y • (x + z • !x) = x • !z + y • (x + z)

x | y | z | y + !z|  !z  | x • (y + !z) | y • z | !x  |  (y • z) • !x | (x • (y + !z)) + ((y • z) • !x) | x • !z | x + z |y • (x + z)| x • !z + y • (x + z)
0 | 0 | 0 |  1    |   1  |       0      |   0   |  1  |        0      |             0                   |    0   |   0   |     0     |        0
0 | 0 | 1 |  0    |   0  |       0      |   0   |  1  |        0      |             0                   |    0   |   1   |     0     |        0
0 | 1 | 0 |  1    |   1  |       0      |   0   |  1  |        0      |             0                   |    0   |   0   |     0     |        0
0 | 1 | 1 |  1    |   0  |       0      |   1   |  1  |        1      |             1                   |    0   |   1   |     1     |        1
1 | 0 | 0 |  1    |   1  |       1      |   0   |  0  |        0      |             1                   |    1   |   1   |     0     |        1
1 | 0 | 1 |  0    |   0  |       0      |   0   |  0  |        0      |             0                   |    0   |   1   |     0     |        0
1 | 1 | 0 |  1    |   1  |       1      |   0   |  0  |        0      |             1                   |    1   |   1   |     1     |        1
1 | 1 | 1 |  1    |   0  |       1      |   1   |  0  |        0      |             1                   |    0   |   1   |     1     |        1

10) (z + (y • !z)) • (x + (y • !z)) • ((x • y) + !y) = 
(z + y) • (x + y • !z) • (!y + x • y) = (z + y) • x + y • !z • !y + x • y) = (z + y) • x + x • y = x • (z + y + y) = x • (z + y)

var a = (z + (y • !z)),
	b = (x + (y • !z)),
	c = ((x • y) + !y);

x | y | z | y • !z| !z | a | b | x • y | !y | c | a • b • c |  z + y | x • (z + y)
0 | 0 | 0 |   0   |  1 | 0 | 0 |   0   |  1 | 1 |     0     |    0   |     0 
0 | 0 | 1 |   0   |  0 | 1 | 0 |   0   |  1 | 1 |     0     |    1   |     0
0 | 1 | 0 |   1   |  1 | 1 | 1 |   0   |  0 | 0 |     0     |    1   |     0
0 | 1 | 1 |   0   |  0 | 1 | 0 |   0   |  0 | 0 |     0     |    1   |     0 
1 | 0 | 0 |   0   |  1 | 0 | 1 |   0   |  1 | 1 |     0     |    0   |     0
1 | 0 | 1 |   0   |  0 | 1 | 1 |   1   |  1 | 1 |     1     |    1   |     1 
1 | 1 | 0 |   1   |  1 | 1 | 1 |   1   |  0 | 1 |     1     |    1   |     1   
1 | 1 | 1 |   0   |  0 | 1 | 1 |   1   |  0 | 1 |     1     |    1   |     1  

11) ((x • z) + (y • !x)) + (y • (z + y • !z)) = x • z + y • !x + y • (z + y • !z) = x • z + y • (!x + z + y • !z) = x • z + y • (!x + z + y) = 
x • z + y • !x + y • z + y = z • (x + y) + !x + y + y = z • x + z • y + y  = z • (x + y)

var a = ((x • z) + (y • !x)),
	b = (y • (z + y • !z));

x | y | z | x • z | !x | y • !x | a | y • !z| !z | z + (y • !z) | b |  a + b | z • x + y
0 | 0 | 0 |   0   |  1 |   0    | 0 |   0   |  1 |      0       | 0 |    0   |     0 
0 | 0 | 1 |   0   |  1 |   0    | 0 |   0   |  0 |      1       | 0 |    0   |     0
0 | 1 | 0 |   0   |  1 |   1    | 1 |   1   |  1 |      1       | 1 |    1   |     1
0 | 1 | 1 |   0   |  1 |   1    | 1 |   0   |  0 |      1       | 1 |    1   |     1 
1 | 0 | 0 |   0   |  0 |   0    | 0 |   0   |  1 |      0       | 0 |    0   |     0
1 | 0 | 1 |   1   |  0 |   0    | 1 |   0   |  0 |      1       | 1 |    1   |     1 
1 | 1 | 0 |   0   |  0 |   0    | 0 |   1   |  1 |      1       | 1 |    1   |     1   
1 | 1 | 1 |   1   |  0 |   0    | 1 |   0   |  0 |      1       | 1 |    1   |     1 

// Truth table

F(A, B, C):

A | B | C  |   F  
0 | 0 | 0  |   0  
0 | 0 | 1  |   0     
0 | 1 | 0  |   0 
0 | 1 | 1  |   1            
1 | 0 | 0  |   1  
1 | 0 | 1  |   1  
1 | 1 | 0  |   1   
1 | 1 | 1  |   0

F(A, B, C) = (!A • B • C) + (A • !B • !C) + (A • !B • C) + (A • B • !C) = 
		  	B • (!A • C + A • !C) + A • (!B • !C + !B • C) = 
			!A • B • C + A • B • !C + A • !B = 
			!A • B • C + A • (B • !C + !B) = 
  		    !A • B • C + A • (B + !B) • (!C + !B) = !A • B • C + A • !C • !B



